<svg width="460" height="460" viewBox="0 0 460 460" fill="none" xmlns="http://www.w3.org/2000/svg">
<path opacity="0.03" fill-rule="evenodd" clip-rule="evenodd" d="M229.845 449.69C351.262 449.69 449.69 351.262 449.69 229.845C449.69 108.428 351.262 10 229.845 10C108.428 10 10 108.428 10 229.845C10 351.262 108.428 449.69 229.845 449.69Z" stroke="white" stroke-width="20"/>
<path opacity="0.06" fill-rule="evenodd" clip-rule="evenodd" d="M229.361 388.723C317.374 388.723 388.723 317.374 388.723 229.361C388.723 141.348 317.374 70 229.361 70C141.348 70 70 141.348 70 229.361C70 317.374 141.348 388.723 229.361 388.723Z" stroke="white" stroke-width="20"/>
<path opacity="0.11" fill-rule="evenodd" clip-rule="evenodd" d="M229.826 328.651C283.853 328.651 327.651 284.853 327.651 230.826C327.651 176.798 283.853 133 229.826 133C175.798 133 132 176.798 132 230.826C132 284.853 175.798 328.651 229.826 328.651Z" stroke="white" stroke-width="20"/>
</svg>
